Etape,Latitude,Longitude,Altitude,Vitesse
1,33,-27,35000,440
2,33.2412086825,-26.8148404043,35000,440.0
3,33.4807172657,-26.6296972622,35000,440.0
4,33.7188304862,-26.4443374879,35000,440.0
5,33.9560945448,-26.2583319756,35000,440.0
6,34.1925068632,-26.0716734284,35000,440.0
7,34.4280648425,-25.8843545429,35000,440.0
8,34.6622213129,-25.6968047852,35000,440.0
9,34.8998702066,-25.5050702739,35000,440.0
10,35.140990824,-25.309079938,35000,440.0
11,35.3763427608,-25.1163218586,35000,440.0
12,35.6074561329,-24.921040596,35000,440.0
13,35.8377152123,-24.7250848911,35000,440.0
14,36.0681896059,-24.5275277756,35000,440.0
15,36.2988723651,-24.3283462379,35000,440.0
16,36.5297563966,-24.1275168554,35000,440.0
17,36.7613681269,-23.9245474131,35000,440.0
18,36.9942306134,-23.7189338516,35000,440.0
19,37.2288633787,-23.5101597241,35000,440.0
20,37.4652510102,-23.2981726908,35000,440.0
21,37.7028472617,-23.0833990952,35000,440.0
22,37.9535896531,-22.8916850044,35000,440.0
23,38.203774474,-22.6981480745,35000,440.0
24,38.4539441158,-22.5023191662,35000,440.0
25,38.7040806129,-22.3041515288,35000,440.0
26,38.9547185687,-22.1031525951,35000,440.0
27,39.2052824663,-21.8997084825,35000,440.0
28,39.455751945,-21.6937679895,35000,440.0
29,39.7066548062,-21.4848203484,35000,440.0
30,39.9574168458,-21.2732597744,35000,440.0
31,40.2080148191,-21.0590299631,35000,440.0
32,40.4668998168,-20.859914022,35000,440.0
33,40.7254728443,-20.6576427969,35000,440.0
34,40.9836981127,-20.4521351805,35000,440.0
35,41.2420947393,-20.2428550917,35000,440.0
36,41.5006163779,-20.0296957993,35000,440.0
37,41.759213838,-19.8125460625,35000,440.0
38,42.0172845702,-19.5917615431,35000,440.0
39,42.2753280325,-19.3667634685,35000,440.0
40,42.5327397861,-19.1379116529,35000,440.0
41,42.7900073784,-18.9046033001,35000,440.0
42,43.0362353231,-18.6462478808,35000,440.0
43,43.2818691753,-18.3843393369,35000,440.0
44,43.5268629454,-18.1187899178,35000,440.0
45,43.7711675986,-17.8495079841,35000,440.0
46,44.014223285,-17.5769677834,35000,440.0
47,44.2564867349,-17.3005127711,35000,440.0
48,44.4978978031,-17.0200377826,35000,440.0
49,44.7378925874,-16.736023616,35000,440.0
50,44.9764100164,-16.4483759159,35000,440.0
51,45.2133836034,-16.1569944061,35000,440.0
52,45.4391861454,-15.8470664716,35000,440.0
53,45.6632772709,-15.5347199724,35000,440.0
54,45.8856201463,-15.2199077283,35000,440.0
55,46.1061742323,-14.902578765,35000,440.0
56,46.3253530632,-14.5820055006,35000,440.0
57,46.542641502,-14.2587844947,35000,440.0
58,46.7584343333,-13.932160682,35000,440.0
59,46.9726552636,-13.6020336205,35000,440.0
60,47.1852157645,-13.2682895151,35000,440.0
61,47.3955692349,-12.931505841,35000,440.0
62,47.5967173398,-12.582616315,35000,440.0
63,47.7958889367,-12.2324391151,35000,440.0
64,47.9926508989,-11.8817170117,35000,440.0
65,48.186991999,-11.5304586006,35000,440.0
66,48.3751716639,-11.1855008273,29699.9992562,420.0
67,48.5539449793,-10.8531200931,24654.7520711,400.0
68,48.7189114376,-10.5420736076,19883.5730836,362.323452404
69,49,-10,15000,440
