<<<<<<< HEAD
FlightId,TimeSeconds,LatitudeDegrees,LongitudeDegrees,AltitudeFeet,FlownDistanceNM,DistanceToNextWaypointNM,AirSpeedKnots,Mach,GroundSpeedKnots,UWindKnots,VWindKnots,RouteDegrees,MassPounds,FuelBurnPounds,SumFuelBurnPounds
301817127,0,51.692780,0.790556,20000,0.000000,0,367,0.60,367,0.00,0.00,0.0,161388,0.00,0.00
301817127,36,51.683980,0.881621,21183,3.430503,40,388,0.63,343,-25.34,-47.98,98.8,161268,120.15,120.15
301817127,72,51.674709,0.976760,22277,7.015892,37,407,0.67,359,-24.37,-52.05,98.9,161152,115.88,236.03
301817127,108,51.665426,1.071196,23295,10.576241,33,407,0.67,356,-22.27,-54.42,99.0,161040,112.07,348.10
301817127,144,51.656133,1.164929,24247,14.111547,30,407,0.67,354,-20.87,-56.84,99.0,160931,108.64,456.74
301817127,180,51.646861,1.257678,25140,17.611164,26,407,0.68,350,-21.25,-60.48,99.1,160826,105.51,562.25
301817127,216,51.637588,1.349671,25982,21.083688,23,407,0.68,347,-22.01,-63.29,99.2,160723,102.65,664.90
301817127,252,51.628298,1.441092,26779,24.536036,19,407,0.68,345,-22.65,-65.39,99.3,160623,100.02,764.92
301817127,288,51.619002,1.531851,27535,27.964756,16,407,0.68,343,-23.26,-67.84,99.3,160526,97.58,862.49
301817127,324,51.609712,1.621826,28196,31.365286,12,407,0.69,340,-24.62,-70.80,99.4,160433,92.22,954.71
301817127,360,51.600391,1.711411,28196,34.752450,9,407,0.69,339,-25.57,-72.24,99.5,160378,55.78,1010.49
301817127,396,51.590985,1.801119,28196,38.145643,5,407,0.69,339,-25.45,-71.67,99.5,160322,55.77,1066.26
301817127,417,51.585371,1.854336,28196,40.159265,2,407,0.69,340,-25.43,-70.77,99.6,160289,33.00,1099.26
301817127,453,51.572354,1.949626,28885,43.799561,44,429,0.72,364,-25.59,-69.99,102.4,160195,93.36,1192.62
301817127,489,51.559026,2.046553,29544,47.504514,40,433,0.73,370,-27.41,-68.39,102.4,160104,91.36,1283.97
301817127,525,51.545546,2.143944,30174,51.229420,36,433,0.74,372,-29.80,-66.72,102.5,160015,89.48,1373.46
301817127,561,51.531933,2.241656,30778,54.968833,33,433,0.74,374,-32.13,-65.59,102.6,159927,87.71,1461.17
301817127,597,51.518196,2.339613,31358,58.719863,29,433,0.74,375,-32.19,-64.49,102.7,159841,86.04,1547.21
301817127,633,51.504300,2.438059,31917,62.491892,25,433,0.74,377,-31.27,-62.33,102.7,159756,84.46,1631.67
301817127,669,51.490195,2.537329,32455,66.297864,21,433,0.74,381,-29.45,-58.75,102.8,159673,82.96,1714.63
301817127,705,51.475885,2.637381,32974,70.136208,18,433,0.75,384,-27.92,-55.35,102.9,159592,81.53,1796.16
301817127,741,51.461398,2.738010,33393,73.999092,14,433,0.75,386,-26.48,-52.73,103.0,159516,76.26,1872.42
301817127,777,51.446750,2.839093,33393,77.881913,10,433,0.75,388,-25.25,-50.59,103.1,159459,56.11,1928.53
301817127,813,51.431935,2.940658,33393,81.785751,6,433,0.75,390,-25.30,-48.53,103.1,159403,56.10,1984.63
301817127,832,51.423973,2.994964,33393,83.874124,2,433,0.75,392,-25.42,-46.47,103.2,159374,29.84,2014.48
301817127,868,51.408982,3.102295,33882,87.992642,44,452,0.78,412,-25.49,-45.38,102.6,159294,79.08,2093.56
301817127,904,51.393816,3.210100,34355,92.132099,40,452,0.78,414,-23.90,-43.08,102.7,159217,77.83,2171.40
301817127,940,51.378441,3.318612,34813,96.301432,36,452,0.78,417,-22.34,-39.87,102.7,159140,76.64,2248.03
301817127,976,51.362846,3.427886,35258,100.502934,32,452,0.78,420,-20.97,-36.45,102.8,159064,75.49,2323.53
301817127,1012,51.347033,3.537893,35689,104.735464,28,452,0.79,423,-20.01,-33.19,102.9,158990,74.39,2397.92
301817127,1048,51.331012,3.648544,36109,108.995787,24,452,0.79,426,-19.73,-30.37,103.0,158917,73.34,2471.26
301817127,1084,51.314806,3.759669,36516,113.277360,19,452,0.79,428,-20.28,-28.35,103.1,158844,72.32,2543.58
301817127,1120,51.298474,3.870859,36913,117.564457,15,452,0.79,429,-20.09,-27.79,103.2,158773,71.35,2614.93
301817127,1156,51.282018,3.982094,37118,121.856333,11,452,0.79,429,-18.67,-27.09,103.3,158709,64.22,2679.16
301817127,1192,51.265423,4.093482,37118,126.157224,6,452,0.79,430,-17.50,-26.00,103.4,158652,57.20,2736.36
301817127,1210,51.257359,4.147317,37118,128.237038,2,452,0.79,431,-17.18,-25.07,103.4,158624,27.60,2763.96
301817127,1246,51.241048,4.260138,37499,132.588616,46,456,0.80,435,-17.02,-24.56,103.0,158554,69.92,2833.88
301817127,1282,51.224536,4.373505,37871,136.964408,41,456,0.80,438,-15.39,-21.84,103.1,158485,69.03,2902.91
301817127,1318,51.207805,4.487542,37896,141.369230,37,456,0.80,440,-14.59,-18.76,103.1,158427,58.27,2961.18
301817127,1354,51.190894,4.601956,37896,145.791849,32,456,0.80,442,-15.17,-17.09,103.2,158369,57.52,3018.70
301817127,1390,51.173810,4.716703,37896,150.230614,28,456,0.80,444,-15.73,-15.59,103.3,158312,57.51,3076.21
301817127,1426,51.156555,4.831753,37896,154.684418,24,456,0.80,445,-16.09,-14.15,103.4,158254,57.50,3133.71
301817127,1462,51.139133,4.947069,37896,159.151872,19,456,0.80,447,-16.28,-12.83,103.5,158197,57.48,3191.19
301817127,1498,51.121548,5.062630,37896,163.632211,15,456,0.80,448,-16.27,-11.55,103.6,158139,57.47,3248.66
301817127,1534,51.103800,5.178423,37896,168.124983,10,456,0.80,449,-16.16,-10.29,103.7,158082,57.46,3306.12
301817127,1570,51.085887,5.294447,37896,172.630224,6,456,0.80,451,-16.05,-9.02,103.8,158024,57.44,3363.56
301817127,1580,51.080981,5.326084,37896,173.859286,1,456,0.80,452,-15.92,-7.76,103.9,158009,15.62,3379.19
301817127,1616,51.062572,5.442320,37909,178.381558,46,456,0.80,452,-15.89,-7.42,104.1,157951,57.80,3436.98
301817127,1652,51.043996,5.558787,37909,182.916474,41,456,0.80,453,-15.80,-6.13,104.2,157894,57.42,3494.40
301817127,1688,51.025252,5.675483,37909,187.463957,37,456,0.80,455,-15.74,-4.86,104.3,157836,57.40,3551.80
301817127,1724,51.006339,5.792412,37909,192.024218,32,456,0.80,456,-15.70,-3.57,104.4,157779,57.39,3609.20
301817127,1760,50.987259,5.909558,37909,196.596699,27,456,0.80,457,-15.68,-2.34,104.5,157721,57.38,3666.57
301817127,1796,50.968013,6.026901,37909,201.180628,23,456,0.80,458,-15.68,-1.20,104.6,157664,57.36,3723.94
301817127,1832,50.948605,6.144415,37909,205.775055,18,456,0.80,459,-15.58,-0.12,104.6,157607,57.35,3781.29
301817127,1868,50.929038,6.262078,37909,210.379173,14,456,0.80,460,-15.35,0.90,104.7,157549,57.34,3838.62
301817127,1904,50.909314,6.379874,37909,214.992399,9,456,0.80,461,-14.98,1.89,104.8,157492,57.32,3895.94
301817127,1938,50.890173,6.493420,37909,219.442903,4,456,0.80,462,-14.47,2.91,104.9,157437,55.18,3951.12
301817127,1974,50.870520,6.611604,37909,224.072858,46,456,0.80,463,-13.87,3.90,104.7,157380,57.30,4008.42
301817127,2010,50.850706,6.729941,37909,228.712704,41,456,0.80,464,-13.24,5.04,104.8,157322,57.28,4065.70
301817127,2046,50.830724,6.848457,37909,233.363564,36,456,0.80,465,-12.66,6.29,104.9,157265,57.27,4122.97
301817127,2082,50.810572,6.967171,37909,238.026155,32,456,0.80,466,-12.18,7.60,105.0,157208,57.25,4180.23
301817127,2118,50.790248,7.086080,37909,242.700475,27,456,0.80,467,-11.75,8.90,105.1,157151,57.24,4237.47
301817127,2154,50.769753,7.205180,37909,247.386418,22,456,0.80,469,-11.36,10.18,105.2,157093,57.23,4294.69
301817127,2190,50.749082,7.324487,37909,252.084617,18,456,0.80,470,-11.07,11.50,105.3,157036,57.21,4351.91
301817127,2226,50.728236,7.443991,37909,256.794758,13,456,0.80,471,-10.82,12.79,105.4,156979,57.20,4409.11
301817127,2262,50.707225,7.563638,37909,261.514719,8,456,0.80,472,-10.47,13.88,105.5,156922,57.19,4466.30
301817127,2289,50.691502,7.652650,37909,265.028932,4,456,0.80,473,-10.06,14.82,105.5,156879,42.50,4508.79
301817127,2325,50.672107,7.773219,37909,269.761278,45,456,0.80,473,-9.79,15.47,104.2,156822,57.16,4565.96
301817127,2361,50.652554,7.893898,37909,274.501862,41,456,0.80,474,-9.50,16.38,104.3,156765,57.15,4623.11
301817127,2397,50.632842,8.014687,37909,279.250730,36,456,0.80,475,-9.25,17.28,104.4,156708,57.14,4680.24
301817127,2433,50.612973,8.135570,37909,284.007302,31,456,0.80,476,-9.05,18.12,104.5,156651,57.12,4737.37
301817127,2469,50.592948,8.256538,37909,288.771275,26,456,0.80,476,-8.83,18.93,104.6,156594,57.11,4794.48
301817127,2505,50.572770,8.377567,37909,293.541687,22,456,0.80,477,-8.44,19.68,104.7,156536,57.10,4851.57
301817127,2541,50.552437,8.498669,37909,298.319111,17,456,0.80,478,-8.02,20.51,104.8,156479,57.08,4908.66
301817127,2577,50.531947,8.619851,37909,303.103832,12,456,0.80,478,-7.64,21.36,104.9,156422,57.07,4965.72
301817127,2613,50.511300,8.741110,37909,307.895744,7,456,0.80,479,-7.33,22.18,104.9,156365,57.06,5022.78
301817127,2633,50.500061,8.806766,37909,310.492105,3,456,0.80,480,-7.10,23.05,105.0,156334,30.86,5053.64
301817127,2669,50.480596,8.928750,37909,315.296010,45,456,0.80,480,-7.00,23.52,104.0,156277,57.04,5110.67
301817127,2705,50.460976,9.050804,37909,320.106662,41,456,0.80,481,-6.71,24.29,104.1,156220,57.02,5167.70
301817127,2741,50.441199,9.172940,37909,324.924503,36,456,0.80,482,-6.40,25.11,104.2,156163,57.01,5224.70
301817127,2777,50.421259,9.295190,37909,329.750929,31,456,0.80,483,-6.23,26.04,104.3,156106,57.00,5281.70
301817127,2813,50.401158,9.417535,37909,334.585204,26,456,0.80,483,-6.07,26.89,104.4,156049,56.98,5338.68
301817127,2849,50.380900,9.539954,37909,339.426509,21,456,0.80,484,-5.75,27.70,104.5,155992,56.97,5395.65
301817127,2885,50.360484,9.662436,37909,344.274445,17,456,0.80,485,-5.38,28.49,104.6,155935,56.96,5452.60
301817127,2921,50.339913,9.784976,37909,349.128885,12,456,0.80,485,-4.95,29.28,104.7,155878,56.94,5509.55
301817127,2957,50.319174,9.907639,37909,353.992409,7,456,0.80,486,-4.65,30.31,104.8,155822,56.93,5566.47
301817127,2971,50.310876,9.956482,37909,355.930201,2,456,0.80,487,-4.45,31.40,104.9,155799,22.63,5589.11
301817127,3007,50.290307,10.079481,37909,360.806344,45,456,0.80,488,-4.27,31.71,104.6,155742,56.91,5646.01
301817127,3043,50.269585,10.202513,37909,365.688058,41,456,0.80,488,-3.69,32.45,104.7,155685,56.90,5702.91
301817127,3079,50.248699,10.325638,37909,370.577724,36,456,0.80,489,-3.06,33.46,104.8,155628,56.88,5759.79
301817127,3115,50.227637,10.448922,37909,375.478045,31,456,0.80,490,-2.41,34.76,104.9,155571,56.87,5816.66
301817127,3151,50.206396,10.572377,37909,380.389479,26,456,0.80,491,-1.63,36.15,105.0,155514,56.86,5873.52
301817127,3187,50.184979,10.695985,37909,385.311429,21,456,0.80,492,-0.67,37.54,105.1,155458,56.84,5930.36
301817127,3223,50.163387,10.819734,37909,390.243403,16,456,0.80,493,0.37,38.90,105.2,155401,56.83,5987.19
301817127,3259,50.141628,10.943570,37909,395.183345,11,456,0.80,494,1.43,40.07,105.3,155344,56.82,6044.01
301817127,3295,50.119707,11.067470,37909,400.130332,6,456,0.80,495,2.50,41.16,105.4,155287,56.80,6100.81
301817127,3304,50.113925,11.100007,37909,401.430177,1,456,0.80,495,3.54,42.32,105.5,155272,14.90,6115.71
301817127,3340,50.093974,11.225025,37909,406.391388,45,456,0.80,496,3.80,42.63,103.9,155215,56.79,6172.50
301817127,3376,50.073867,11.350081,37909,411.358222,40,456,0.80,497,4.71,43.50,104.0,155159,56.77,6229.27
301817127,3412,50.053609,11.475130,37909,416.328993,36,456,0.80,497,5.67,44.21,104.1,155102,56.76,6286.03
301817127,3448,50.033210,11.600113,37909,421.301316,31,456,0.80,497,6.67,44.70,104.2,155045,56.75,6342.78
301817127,3484,50.012676,11.725000,37909,426.274086,26,456,0.80,497,7.79,45.11,104.3,154988,56.73,6399.52
301817127,3520,49.991985,11.849915,37909,431.252202,21,456,0.80,498,9.20,46.13,104.4,154932,56.72,6456.24
301817127,3556,49.971158,11.974736,37909,436.230918,16,456,0.80,498,10.35,46.59,104.5,154875,56.71,6512.94
301817127,3592,49.950210,12.099371,37909,441.206479,11,456,0.80,498,11.16,46.55,104.6,154818,56.69,6569.64
301817127,3628,49.929126,12.223912,37909,446.182683,6,456,0.80,498,11.84,46.88,104.7,154762,56.68,6626.32
301817127,3664,49.909056,12.348817,37909,451.159339,46,456,0.80,498,12.55,46.81,104.0,154705,56.67,6682.99
301817127,3700,49.888856,12.473593,37909,456.135048,41,456,0.80,498,13.29,46.98,104.1,154648,56.65,6739.64
301817127,3736,49.868506,12.598359,37909,461.114562,36,456,0.80,498,13.82,47.59,104.2,154592,56.64,6796.28
301817127,3772,49.848027,12.722995,37909,466.093041,31,456,0.80,498,14.06,47.61,104.3,154535,56.63,6852.91
301817127,3808,49.827410,12.847553,37909,471.072667,26,456,0.80,498,14.30,47.85,104.3,154478,56.62,6909.53
301817127,3844,49.806641,12.972116,37909,476.056732,21,456,0.80,498,14.58,48.46,104.4,154422,56.60,6966.13
301817127,3880,49.785727,13.096636,37909,481.043386,16,456,0.80,499,14.82,48.85,104.5,154365,56.59,7022.72
301817127,3916,49.764651,13.221217,37909,486.036819,12,456,0.80,499,15.11,49.71,104.6,154309,56.58,7079.30
301817127,3952,49.743417,13.345840,37909,491.036304,7,456,0.80,500,15.50,50.53,104.7,154252,56.56,7135.86
301817127,3963,49.736964,13.383530,37909,492.549176,2,456,0.80,500,16.01,51.22,104.8,154235,17.10,7152.96
301817127,3999,49.717438,13.509112,37909,497.562241,46,456,0.80,501,16.18,51.47,103.5,154178,56.55,7209.50
301817127,4035,49.697757,13.634712,37909,502.580079,41,456,0.80,502,16.78,52.20,103.6,154122,56.53,7266.03
301817127,4071,49.677916,13.760367,37909,507.604216,36,456,0.80,502,17.52,53.15,103.7,154065,56.52,7322.55
301817127,4107,49.657897,13.886176,37909,512.638644,31,456,0.80,503,18.30,54.53,103.8,154009,56.51,7379.06
301817127,4143,49.637718,14.012036,37909,517.679257,26,456,0.80,504,19.04,55.47,103.9,153952,56.49,7435.55
301817127,4179,49.617396,14.137830,37909,522.721425,21,456,0.80,504,19.67,55.91,104.0,153896,56.48,7492.04
301817127,4215,49.596917,14.263645,37909,527.768640,16,456,0.80,505,20.26,56.69,104.1,153839,56.47,7548.50
301817127,4251,49.576273,14.389531,37909,532.822968,11,456,0.80,505,20.86,57.70,104.1,153783,56.45,7604.96
301817127,4287,49.555461,14.515497,37909,537.884810,6,456,0.80,506,21.48,58.77,104.2,153727,56.44,7661.40
301817127,4323,49.538888,14.643661,37909,542.975715,46,456,0.80,509,22.17,59.90,101.2,153670,56.43,7717.83
301817127,4359,49.522162,14.771831,37909,548.070292,41,456,0.80,509,22.97,60.57,101.3,153614,56.42,7774.24
301817127,4395,49.505284,14.899983,37909,553.167708,36,456,0.80,510,23.75,61.16,101.4,153557,56.40,7830.65
301817127,4431,49.488247,15.028186,37909,558.270645,31,456,0.80,510,24.56,62.03,101.5,153501,56.39,7887.04
301817127,4467,49.471073,15.156263,37909,563.372147,26,456,0.80,510,25.41,62.20,101.6,153445,56.38,7943.41
301817127,4503,49.453762,15.284218,37909,568.472352,21,456,0.80,510,26.19,62.38,101.7,153388,56.36,7999.78
301817127,4539,49.436302,15.412136,37909,573.574757,16,456,0.80,510,27.04,62.93,101.8,153332,56.35,8056.13
301817127,4575,49.418700,15.539973,37909,578.677535,10,456,0.80,510,28.09,63.37,101.9,153276,56.34,8112.47
301817127,4611,49.400974,15.667601,37909,583.775657,5,456,0.80,510,29.21,63.31,102.0,153219,56.33,8168.79
301817127,4647,49.387124,15.796794,37909,588.892210,46,456,0.80,512,30.12,63.24,99.3,153163,56.31,8225.10
301817127,4683,49.373127,15.925946,37909,594.010047,41,456,0.80,512,31.00,63.68,99.4,153107,56.30,8281.40
301817127,4719,49.358990,16.054988,37909,599.126470,36,456,0.80,512,31.87,63.84,99.5,153050,56.29,8337.69
301817127,4755,49.344721,16.183846,37909,604.238521,31,456,0.80,511,32.59,63.67,99.6,152994,56.27,8393.96
301817127,4791,49.330315,16.312580,37909,609.348658,26,456,0.80,511,33.24,63.73,99.7,152938,56.26,8450.22
301817127,4827,49.315787,16.441053,37909,614.451421,21,456,0.80,510,33.94,63.25,99.8,152882,56.25,8506.47
301817127,4863,49.301149,16.569171,37909,619.543087,15,456,0.80,509,34.53,62.35,99.9,152825,56.23,8562.70
301817127,4899,49.286383,16.697091,37909,624.629926,10,456,0.80,509,34.99,62.07,100.0,152769,56.22,8618.93
301817127,4935,49.271486,16.824857,37909,629.713703,5,456,0.80,508,35.56,62.00,100.1,152713,56.21,8675.14
301817127,4971,49.258705,16.953293,37907,634.803988,46,456,0.80,509,36.31,61.54,98.6,152657,56.13,8731.27
301817127,5007,49.245808,17.081409,37907,639.884251,41,456,0.80,508,37.14,60.81,98.7,152601,56.18,8787.45
301817127,5043,49.232792,17.209239,37907,644.955820,36,456,0.80,507,37.93,60.22,98.8,152544,56.17,8843.62
301817127,5079,49.219648,17.336882,37907,650.022638,31,456,0.80,507,38.69,60.02,98.9,152488,56.16,8899.78
301817127,5115,49.206391,17.464188,37907,655.078806,26,456,0.80,506,39.67,59.28,99.0,152432,56.14,8955.92
301817127,5151,49.193034,17.591044,37907,660.119793,21,456,0.80,504,40.60,58.06,99.1,152376,56.13,9012.05
301817127,5187,49.179568,17.717558,37907,665.149921,16,456,0.80,503,41.23,57.21,99.2,152320,56.12,9068.17
301817127,5223,49.165993,17.843733,37907,670.169331,11,456,0.80,502,41.77,56.35,99.3,152264,56.11,9124.28
301817127,5259,49.152316,17.969514,37907,675.175795,6,456,0.80,501,42.40,55.29,99.4,152208,56.09,9180.37
301817127,5295,49.141449,18.095767,37559,680.177008,47,454,0.80,500,43.10,54.78,97.4,152163,44.36,9224.73
301817127,5331,49.130453,18.221867,37559,685.174321,42,454,0.80,500,42.63,54.36,97.5,152107,55.90,9280.63
301817127,5367,49.119367,18.347379,37559,690.150549,37,454,0.80,498,44.00,52.64,97.6,152051,55.89,9336.52
301817127,5403,49.108195,18.472274,37559,695.104536,32,454,0.80,495,45.21,50.76,97.7,151996,55.88,9392.39
301817127,5439,49.096930,18.596662,37559,700.040665,27,454,0.80,494,46.09,49.25,97.8,151940,55.86,9448.26
301817127,5475,49.085552,18.720768,37559,704.967804,22,454,0.80,493,46.75,48.60,97.9,151884,55.85,9504.11
301817127,5511,49.074073,18.844478,37559,709.881540,17,454,0.80,491,47.62,47.55,98.0,151828,55.84,9559.94
301817127,5547,49.062517,18.967546,37559,714.772002,12,454,0.80,489,49.01,45.62,98.1,151772,55.83,9615.77
301817127,5583,49.050884,19.089983,37559,719.639678,8,454,0.80,487,49.98,43.64,98.2,151716,55.81,9671.58
301817127,5603,49.044359,19.158049,37559,722.346735,3,454,0.80,485,50.22,42.13,98.3,151685,31.14,9702.72
301817127,5639,49.034645,19.286114,36176,727.420875,43,475,0.83,507,50.46,41.15,96.6,151675,10.17,9712.89
301817127,5675,49.024395,19.419199,34808,732.695991,38,497,0.86,528,47.65,39.22,96.6,151665,10.29,9723.18
301817127,5711,49.013630,19.556830,33456,738.153650,32,518,0.89,546,41.52,34.75,96.7,151654,10.41,9733.59
301817127,5747,49.002304,19.699358,32121,743.807980,27,539,0.92,565,35.00,31.77,96.9,151644,10.53,9744.12
301817127,5783,48.990387,19.846925,31867,749.664941,21,561,0.96,586,28.57,29.51,97.0,151563,80.90,9825.03
301817127,5819,48.977861,19.999507,31867,755.723927,15,582,1.00,606,28.49,28.38,97.1,151450,112.85,9937.88
301817127,5855,48.964706,20.157101,31867,761.985164,9,603,1.03,626,28.33,27.27,97.2,151319,131.17,10069.05
301817127,5873,48.958121,20.235006,31867,765.081557,3,625,1.07,646,27.96,25.95,97.3,151245,73.96,10143.01
301817127,5909,48.947618,20.403672,30551,771.761444,42,646,1.10,668,28.07,25.33,95.4,151234,10.69,10153.69
301817127,5945,48.936541,20.577368,29251,778.643517,36,667,1.13,688,25.28,23.87,95.5,151223,10.82,10164.52
301817127,5981,48.924873,20.755962,27968,785.722887,29,689,1.16,708,23.41,22.05,95.6,151213,10.97,10175.48
301817127,6017,48.912593,20.939458,26702,793.000020,22,710,1.19,728,21.91,20.33,95.7,151201,11.12,10186.60
301817127,6053,48.899674,21.127866,25926,800.475750,14,731,1.22,748,20.06,18.64,95.9,150989,212.64,10399.24
301817127,6085,48.887508,21.301258,25926,807.359122,7,753,1.26,768,18.28,17.21,96.0,150336,653.20,11052.44
301817127,6121,48.876468,21.500512,24689,815.254232,43,774,1.28,790,18.71,17.31,94.7,150324,11.37,11063.81
301817127,6157,48.864780,21.704925,23469,823.357400,35,795,1.31,810,17.52,16.69,94.9,150313,11.54,11075.35
301817127,6193,48.852413,21.914552,22268,831.671277,27,817,1.34,831,17.17,16.44,95.0,150301,11.72,11087.07
301817127,6229,48.839352,22.129145,21086,840.186383,18,838,1.37,852,15.21,15.06,95.2,150289,11.90,11098.97
301817127,6265,48.825586,22.348443,20000,848.892900,10,859,1.40,871,12.49,12.59,95.4,149986,303.02,11401.99
301817127,6269,48.823891,22.375000,20000,849.947587,1,881,1.43,890,9.78,9.90,95.5,149186,800.36,12202.35
=======
FlightId,TimeSeconds,LatitudeDegrees,LongitudeDegrees,AltitudeFeet,FlownDistanceNM,DistanceToNextWaypointNM,AirSpeedKnots,Mach,GroundSpeedKnots,UWindKnots,VWindKnots,RouteDegrees,MassPounds,FuelBurnPounds,SumFuelBurnPounds
301817127,0,51.692780,0.790556,20000,0.000000,0,367,0.60,367,0.00,0.00,0.0,161388,0.00,0.00
301817127,36,51.684785,0.881706,21183,3.426495,40,388,0.63,343,-25.34,-47.98,98.0,161268,120.15,120.15
301817127,72,51.676358,0.976903,22277,7.006428,36,407,0.67,358,-24.37,-52.03,98.1,161152,115.88,236.03
301817127,108,51.667912,1.071410,23295,10.561703,33,407,0.67,356,-22.27,-54.39,98.2,161040,112.07,348.10
301817127,144,51.659451,1.165224,24247,14.092231,29,407,0.67,353,-20.87,-56.80,98.2,160931,108.64,456.74
301817127,180,51.651001,1.258055,25140,17.587071,26,407,0.68,349,-21.25,-60.43,98.3,160826,105.51,562.25
301817127,216,51.642544,1.350130,25982,21.054776,22,407,0.68,347,-22.03,-63.23,98.4,160723,102.65,664.90
301817127,252,51.634066,1.441636,26779,24.502304,19,407,0.68,345,-22.68,-65.33,98.5,160623,100.02,764.92
301817127,288,51.625575,1.532481,27535,27.926202,15,407,0.68,342,-23.30,-67.76,98.5,160526,97.58,862.49
301817127,324,51.617085,1.622538,28164,31.321701,12,407,0.69,340,-24.67,-70.73,98.6,160435,90.45,952.95
301817127,360,51.608559,1.712218,28164,34.704215,8,407,0.69,338,-25.58,-72.12,98.7,160379,55.78,1008.73
301817127,396,51.599950,1.802018,28164,38.092582,5,407,0.69,339,-25.46,-71.56,98.7,160324,55.77,1064.50
301817127,413,51.595843,1.844604,28164,39.699874,2,407,0.69,340,-25.44,-70.67,98.8,160297,26.38,1090.87
301817127,449,51.583022,1.939894,28854,43.336830,44,429,0.72,364,-25.57,-70.05,102.2,160204,93.45,1184.33
301817127,485,51.569895,2.036818,29514,47.038307,40,433,0.73,370,-27.32,-68.51,102.3,160112,91.45,1275.78
301817127,521,51.556616,2.134212,30145,50.759857,36,433,0.74,372,-29.65,-66.82,102.3,160023,89.57,1365.34
301817127,557,51.543203,2.231941,30751,54.496389,33,433,0.74,374,-32.07,-65.64,102.4,159935,87.79,1453.13
301817127,593,51.529669,2.329895,31332,58.243753,29,433,0.74,375,-32.22,-64.63,102.5,159849,86.12,1539.25
301817127,629,51.515981,2.428310,31892,62.010990,25,433,0.74,377,-31.41,-62.60,102.6,159764,84.53,1623.78
301817127,665,51.502092,2.527517,32431,65.810897,21,433,0.74,380,-29.69,-59.17,102.6,159681,83.03,1706.81
301817127,701,51.487995,2.627537,32950,69.644240,17,433,0.74,383,-28.17,-55.67,102.7,159600,81.60,1788.40
301817127,737,51.473720,2.728150,33372,73.502745,14,433,0.75,386,-26.71,-52.99,102.8,159523,76.40,1864.80
301817127,773,51.459284,2.829223,33372,77.381316,10,433,0.75,388,-25.46,-50.84,102.9,159467,56.11,1920.91
301817127,809,51.444682,2.930777,33372,81.280812,6,433,0.75,390,-25.49,-48.79,103.0,159411,56.10,1977.01
301817127,828,51.437051,2.983588,33372,83.309669,2,433,0.75,392,-25.60,-46.74,103.0,159382,29.02,2006.03
301817127,864,51.422176,3.090789,33861,87.420795,44,452,0.78,411,-25.66,-45.68,102.5,159303,79.14,2085.17
301817127,900,51.407127,3.198461,34335,91.552678,40,452,0.78,413,-24.02,-43.40,102.6,159225,77.89,2163.06
301817127,936,51.391871,3.306835,34794,95.714232,36,452,0.78,416,-22.48,-40.22,102.7,159148,76.69,2239.75
301817127,972,51.376394,3.415981,35239,99.908284,32,452,0.78,419,-21.11,-36.76,102.8,159073,75.54,2315.29
301817127,1008,51.360700,3.525866,35671,104.133623,28,452,0.79,423,-20.11,-33.47,102.8,158998,74.44,2389.73
301817127,1044,51.344797,3.636411,36091,108.387228,23,452,0.79,425,-19.78,-30.59,102.9,158925,73.38,2463.11
301817127,1080,51.328706,3.747450,36499,112.662843,19,452,0.79,428,-20.25,-28.48,103.0,158853,72.37,2535.48
301817127,1116,51.312487,3.858577,36896,116.944872,15,452,0.79,428,-20.15,-27.85,103.1,158781,71.39,2606.87
301817127,1152,51.296145,3.969743,37033,121.231423,11,452,0.79,429,-18.81,-27.20,103.2,158719,61.90,2668.77
301817127,1188,51.279667,4.081035,37033,125.525922,6,452,0.79,429,-18.01,-26.28,103.3,158662,57.17,2725.93
301817127,1205,51.271614,4.135139,37033,127.614795,2,452,0.79,430,-17.67,-25.44,103.4,158634,27.75,2753.68
301817127,1241,51.255291,4.247904,37417,131.963245,46,456,0.80,435,-17.49,-24.98,103.0,158564,70.12,2823.80
301817127,1277,51.238771,4.361188,37791,136.334797,41,456,0.80,437,-15.73,-22.35,103.1,158495,69.22,2893.02
301817127,1313,51.222033,4.475129,37898,140.734905,37,456,0.80,440,-14.79,-19.30,103.2,158434,60.73,2953.75
301817127,1349,51.205106,4.589523,37898,145.155744,33,456,0.80,442,-15.14,-17.28,103.2,158377,57.53,3011.28
301817127,1385,51.188003,4.704255,37898,149.592938,28,456,0.80,444,-15.74,-15.76,103.3,158319,57.51,3068.79
301817127,1421,51.170728,4.819302,37898,154.045579,24,456,0.80,445,-16.14,-14.30,103.4,158262,57.50,3126.29
301817127,1457,51.153287,4.934616,37898,158.511959,19,456,0.80,447,-16.36,-12.97,103.5,158204,57.49,3183.78
301817127,1493,51.135681,5.050178,37898,162.991346,15,456,0.80,448,-16.38,-11.68,103.6,158147,57.47,3241.25
301817127,1529,51.117911,5.165973,37898,167.483193,10,456,0.80,449,-16.27,-10.42,103.7,158089,57.46,3298.71
301817127,1565,51.099978,5.281998,37898,171.987440,6,456,0.80,450,-16.16,-9.16,103.8,158032,57.45,3356.16
301817127,1576,51.094662,5.316233,37898,173.317151,1,456,0.80,452,-16.05,-7.88,103.9,158015,16.91,3373.06
301817127,1612,51.075923,5.432375,37911,177.839638,46,456,0.80,452,-16.02,-7.51,104.4,157957,57.81,3430.87
301817127,1648,51.057017,5.548742,37911,182.374617,41,456,0.80,453,-15.91,-6.24,104.5,157900,57.42,3488.29
301817127,1684,51.037943,5.665334,37911,186.922044,37,456,0.80,455,-15.85,-4.98,104.5,157842,57.41,3545.70
301817127,1720,51.018699,5.782152,37911,191.482108,32,456,0.80,456,-15.79,-3.70,104.6,157785,57.39,3603.09
301817127,1756,50.999287,5.899187,37911,196.054410,28,456,0.80,457,-15.76,-2.47,104.7,157728,57.38,3660.47
301817127,1792,50.979708,6.016421,37911,200.638343,23,456,0.80,458,-15.77,-1.30,104.8,157670,57.37,3717.84
301817127,1828,50.959967,6.133824,37911,205.232798,18,456,0.80,459,-15.67,-0.23,104.9,157613,57.35,3775.19
301817127,1864,50.940066,6.251376,37911,209.837000,14,456,0.80,460,-15.45,0.80,105.0,157555,57.34,3832.53
301817127,1900,50.920007,6.369058,37911,214.450234,9,456,0.80,461,-15.09,1.79,105.1,157498,57.33,3889.85
301817127,1935,50.899984,6.485748,37911,219.028525,5,456,0.80,462,-14.60,2.80,105.2,157441,56.77,3946.62
301817127,1971,50.879838,6.603760,37911,223.658951,46,456,0.80,463,-13.98,3.82,105.1,157384,57.30,4003.92
301817127,2007,50.859531,6.721916,37911,228.298999,41,456,0.80,464,-13.34,4.94,105.2,157327,57.28,4061.20
301817127,2043,50.839057,6.840244,37911,232.949873,36,456,0.80,465,-12.76,6.18,105.3,157270,57.27,4118.47
301817127,2079,50.818412,6.958761,37911,237.612309,32,456,0.80,466,-12.26,7.48,105.4,157212,57.26,4175.73
301817127,2115,50.797595,7.077469,37911,242.286409,27,456,0.80,467,-11.82,8.78,105.5,157155,57.24,4232.98
301817127,2151,50.776606,7.196364,37911,246.972032,22,456,0.80,469,-11.42,10.06,105.6,157098,57.23,4290.21
301817127,2187,50.755441,7.315460,37911,251.669820,18,456,0.80,470,-11.11,11.38,105.6,157041,57.22,4347.42
301817127,2223,50.734101,7.434753,37911,256.379644,13,456,0.80,471,-10.86,12.68,105.7,156983,57.20,4404.63
301817127,2259,50.712593,7.554187,37911,261.099376,8,456,0.80,472,-10.52,13.78,105.8,156926,57.19,4461.82
301817127,2287,50.695808,7.646856,37911,264.764413,4,456,0.80,473,-10.12,14.73,105.9,156882,44.32,4506.14
301817127,2323,50.676024,7.767276,37912,269.496669,46,456,0.80,473,-9.81,15.40,104.5,156825,57.20,4563.34
301817127,2359,50.656081,7.887801,37912,274.237081,41,456,0.80,474,-9.53,16.30,104.6,156768,57.15,4620.50
301817127,2395,50.635980,8.008434,37912,278.985787,36,456,0.80,475,-9.27,17.21,104.7,156710,57.14,4677.64
301817127,2431,50.615721,8.129160,37912,283.742225,31,456,0.80,476,-9.07,18.05,104.8,156653,57.13,4734.76
301817127,2467,50.595305,8.249970,37912,288.506091,27,456,0.80,476,-8.85,18.87,104.9,156596,57.11,4791.87
301817127,2503,50.574736,8.370839,37912,293.276423,22,456,0.80,477,-8.47,19.63,105.0,156539,57.10,4848.97
301817127,2539,50.554013,8.491777,37912,298.053676,17,456,0.80,478,-8.04,20.45,105.1,156482,57.09,4906.06
301817127,2575,50.533132,8.612792,37912,302.838194,12,456,0.80,478,-7.65,21.30,105.1,156425,57.07,4963.13
301817127,2611,50.512095,8.733879,37912,307.629848,8,456,0.80,479,-7.34,22.13,105.2,156368,57.06,5020.19
301817127,2632,50.500003,8.803104,37912,310.371107,3,456,0.80,480,-7.10,22.99,105.3,156335,32.58,5052.77
301817127,2668,50.479987,8.924867,37912,315.175019,46,456,0.80,480,-7.00,23.49,104.4,156278,57.04,5109.81
301817127,2704,50.459816,9.046696,37912,319.985622,41,456,0.80,481,-6.71,24.26,104.5,156221,57.02,5166.84
301817127,2740,50.439488,9.168599,37912,324.803301,36,456,0.80,482,-6.39,25.07,104.6,156164,57.01,5223.85
301817127,2776,50.418996,9.290613,37912,329.629480,31,456,0.80,483,-6.22,25.99,104.7,156107,57.00,5280.84
301817127,2812,50.398344,9.412718,37912,334.463482,26,456,0.80,483,-6.05,26.85,104.8,156050,56.98,5337.83
301817127,2848,50.377533,9.534891,37912,339.304422,22,456,0.80,484,-5.73,27.66,104.9,155993,56.97,5394.80
301817127,2884,50.356567,9.657123,37912,344.151948,17,456,0.80,485,-5.36,28.44,105.0,155936,56.96,5451.76
301817127,2920,50.335444,9.779409,37912,349.005912,12,456,0.80,485,-4.94,29.23,105.1,155879,56.94,5508.70
301817127,2956,50.314154,9.901810,37912,353.868793,7,456,0.80,486,-4.63,30.25,105.2,155822,56.93,5565.63
301817127,2971,50.304889,9.954811,37912,355.975811,2,456,0.80,487,-4.43,31.34,105.3,155798,24.61,5590.25
301817127,3007,50.283565,10.077461,37914,360.851327,46,456,0.80,488,-4.23,31.67,105.2,155741,56.96,5647.21
301817127,3043,50.262088,10.200140,37914,365.732417,41,456,0.80,488,-3.65,32.42,105.3,155684,56.90,5704.11
301817127,3079,50.240446,10.322905,37914,370.621338,36,456,0.80,489,-3.03,33.42,105.4,155627,56.89,5761.00
301817127,3115,50.218629,10.445822,37914,375.520796,31,456,0.80,490,-2.39,34.72,105.5,155570,56.87,5817.87
301817127,3151,50.196632,10.568902,37914,380.431233,26,456,0.80,491,-1.62,36.10,105.6,155513,56.86,5874.73
301817127,3187,50.174460,10.692125,37914,385.351921,21,456,0.80,492,-0.66,37.48,105.6,155456,56.85,5931.57
301817127,3223,50.152112,10.815479,37914,390.282471,16,456,0.80,493,0.38,38.85,105.7,155400,56.83,5988.41
301817127,3259,50.129597,10.938916,37914,395.220957,11,456,0.80,494,1.43,40.02,105.8,155343,56.82,6045.23
301817127,3295,50.106921,11.062406,37914,400.166195,6,456,0.80,495,2.50,41.09,105.9,155286,56.81,6102.03
301817127,3306,50.099996,11.099956,37914,401.670841,2,456,0.80,495,3.55,42.27,106.0,155269,17.25,6119.28
301817127,3342,50.079230,11.224578,37914,406.630703,46,456,0.80,496,3.86,42.64,104.5,155212,56.79,6176.07
301817127,3378,50.058310,11.349220,37914,411.595688,41,456,0.80,496,4.79,43.47,104.6,155155,56.78,6232.85
301817127,3414,50.037241,11.473844,37914,416.564286,36,456,0.80,497,5.75,44.17,104.7,155098,56.76,6289.61
301817127,3450,50.016033,11.598389,37914,421.534107,31,456,0.80,497,6.75,44.63,104.8,155042,56.75,6346.36
301817127,3486,49.994691,11.722831,37914,426.504217,26,456,0.80,497,7.84,45.04,104.9,154985,56.74,6403.10
301817127,3522,49.973193,11.847293,37914,431.479550,21,456,0.80,498,9.25,46.06,105.0,154928,56.72,6459.82
301817127,3558,49.951564,11.971634,37914,436.454485,16,456,0.80,497,10.38,46.43,105.1,154871,56.71,6516.53
301817127,3594,49.929813,12.095805,37914,441.427124,11,456,0.80,497,11.23,46.50,105.2,154815,56.70,6573.23
301817127,3630,49.907925,12.219884,37914,446.400592,6,456,0.80,497,11.93,46.87,105.3,154758,56.68,6629.91
301817127,3666,49.887039,12.344311,37915,451.373544,47,456,0.80,497,12.59,46.68,104.6,154701,56.71,6686.62
301817127,3702,49.866022,12.468620,37915,456.346119,42,456,0.80,497,13.32,46.92,104.7,154645,56.66,6743.28
301817127,3738,49.844852,12.592937,37915,461.323380,37,456,0.80,498,13.84,47.63,104.7,154588,56.64,6799.92
301817127,3774,49.823555,12.717113,37915,466.299340,32,456,0.80,498,14.09,47.62,104.8,154531,56.63,6856.56
301817127,3810,49.802125,12.841183,37915,471.275451,27,456,0.80,498,14.32,47.76,104.9,154475,56.62,6913.17
301817127,3846,49.780546,12.965235,37915,476.255242,22,456,0.80,498,14.57,48.28,105.0,154418,56.61,6969.78
301817127,3882,49.758815,13.089293,37915,481.239760,17,456,0.80,498,14.79,48.90,105.1,154362,56.59,7026.37
301817127,3918,49.736920,13.213416,37915,486.231365,12,456,0.80,499,15.08,49.80,105.2,154305,56.58,7082.95
301817127,3954,49.714872,13.337542,37915,491.227585,7,456,0.80,500,15.48,50.47,105.3,154248,56.57,7139.52
301817127,3969,49.706070,13.386856,37915,493.213803,2,456,0.80,500,16.02,51.13,105.4,154226,22.46,7161.98
301817127,4005,49.685853,13.512032,37917,498.224507,46,456,0.80,501,16.24,51.47,104.0,154169,56.61,7218.59
301817127,4041,49.665482,13.637227,37917,503.240107,41,456,0.80,502,16.84,52.23,104.1,154113,56.54,7275.13
301817127,4077,49.644951,13.762466,37917,508.261703,36,456,0.80,502,17.54,53.14,104.2,154056,56.52,7331.65
301817127,4113,49.624246,13.887835,37917,513.292786,31,456,0.80,503,18.30,54.44,104.3,154000,56.51,7388.16
301817127,4149,49.603382,14.013241,37917,518.329658,26,456,0.80,504,19.03,55.35,104.4,153943,56.50,7444.65
301817127,4185,49.582374,14.138591,37917,523.368568,21,456,0.80,504,19.65,55.84,104.4,153887,56.48,7501.14
301817127,4221,49.561203,14.263996,37917,528.414071,16,456,0.80,505,20.18,56.77,104.5,153830,56.47,7557.61
301817127,4257,49.539863,14.389487,37917,533.467447,11,456,0.80,505,20.73,57.86,104.6,153774,56.46,7614.07
301817127,4293,49.518354,14.515063,37917,538.528632,6,456,0.80,506,21.36,58.97,104.7,153717,56.44,7670.51
301817127,4329,49.501720,14.643172,37922,543.621880,46,456,0.80,509,22.05,60.07,101.3,153661,56.58,7727.09
301817127,4365,49.484937,14.771247,37922,548.717240,41,456,0.80,510,22.85,60.57,101.4,153604,56.42,7783.51
301817127,4401,49.468005,14.899295,37922,553.815037,36,456,0.80,510,23.60,61.11,101.5,153548,56.41,7839.92
301817127,4437,49.450910,15.027416,37922,558.919256,31,456,0.80,510,24.38,62.07,101.6,153492,56.39,7896.31
301817127,4473,49.433673,15.155445,37922,564.023428,26,456,0.80,510,25.25,62.39,101.6,153435,56.38,7952.69
301817127,4509,49.416305,15.283317,37922,569.124906,21,456,0.80,510,26.10,62.43,101.7,153379,56.37,8009.06
301817127,4545,49.398795,15.411106,37922,574.226730,16,456,0.80,510,26.96,62.81,101.8,153323,56.36,8065.42
301817127,4581,49.381142,15.538818,37922,579.329087,11,456,0.80,510,28.00,63.26,101.9,153266,56.34,8121.76
301817127,4617,49.363361,15.666347,37922,584.427823,6,456,0.80,510,29.08,63.30,102.0,153210,56.33,8178.09
301817127,4653,49.349219,15.795379,37926,589.544910,47,456,0.80,512,29.97,63.32,99.5,153153,56.44,8234.53
301817127,4689,49.334935,15.924337,37926,594.661979,41,456,0.80,512,30.86,63.63,99.6,153097,56.31,8290.84
301817127,4725,49.320517,16.053126,37926,599.775323,36,456,0.80,511,31.71,63.56,99.7,153041,56.29,8347.13
301817127,4761,49.305965,16.181767,37926,604.885816,31,456,0.80,511,32.38,63.53,99.8,152985,56.28,8403.41
301817127,4797,49.291268,16.310350,37926,609.996988,26,456,0.80,511,33.03,63.86,99.9,152928,56.27,8459.68
301817127,4833,49.276457,16.438606,37926,615.098283,21,456,0.80,510,33.72,63.12,100.0,152872,56.25,8515.94
301817127,4869,49.261534,16.566527,37926,620.189295,16,456,0.80,509,34.27,62.30,100.1,152816,56.24,8572.18
301817127,4905,49.246487,16.694236,37926,625.274941,11,456,0.80,509,34.80,61.98,100.2,152760,56.23,8628.41
301817127,4941,49.231316,16.821720,37926,630.354723,6,456,0.80,508,35.39,61.63,100.3,152703,56.22,8684.62
301817127,4977,49.218437,16.949974,37934,635.442915,47,456,0.80,509,36.10,61.19,98.7,152647,56.44,8741.06
301817127,5013,49.205440,17.077932,37934,640.522034,42,456,0.80,508,36.93,60.57,98.8,152591,56.19,8797.25
301817127,5049,49.192320,17.205644,37934,645.594035,37,456,0.80,507,37.69,60.12,98.9,152535,56.18,8853.44
301817127,5085,49.179068,17.333210,37934,650.662955,32,456,0.80,507,38.44,60.09,99.0,152478,56.17,8909.60
301817127,5121,49.165706,17.460413,37934,655.720153,27,456,0.80,506,39.46,59.25,99.1,152422,56.16,8965.76
301817127,5157,49.152247,17.587149,37934,660.761525,22,456,0.80,504,40.37,57.96,99.2,152366,56.14,9021.90
301817127,5193,49.138680,17.713534,37934,665.791663,17,456,0.80,503,40.96,57.06,99.3,152310,56.13,9078.03
301817127,5229,49.125004,17.839586,37934,670.811339,12,456,0.80,502,41.47,56.22,99.4,152254,56.12,9134.15
301817127,5265,49.111222,17.965280,37934,675.819528,7,456,0.80,501,42.08,55.30,99.5,152198,56.10,9190.26
301817127,5276,49.106966,18.003831,37934,677.356126,2,456,0.80,500,42.82,54.88,99.6,152181,17.23,9207.49
301817127,5312,49.096968,18.130198,37486,682.359675,46,454,0.80,500,43.09,54.80,96.8,152139,41.01,9248.50
301817127,5348,49.086852,18.256258,37486,687.353086,41,454,0.80,499,42.54,53.73,96.9,152084,55.86,9304.36
301817127,5384,49.076645,18.381714,37486,692.324599,36,454,0.80,497,43.94,51.92,97.0,152028,55.85,9360.21
301817127,5420,49.066342,18.506628,37486,697.276679,31,454,0.80,495,44.98,50.27,97.1,151972,55.84,9416.05
301817127,5456,49.055935,18.631138,37486,702.214819,26,454,0.80,494,45.86,49.16,97.2,151916,55.82,9471.87
301817127,5492,49.045419,18.755289,37486,707.140806,22,454,0.80,493,46.66,48.20,97.3,151860,55.81,9527.68
301817127,5528,49.034813,18.878902,37486,712.047498,17,454,0.80,491,47.92,46.64,97.4,151805,55.80,9583.48
301817127,5564,49.024130,19.001822,37486,716.928765,12,454,0.80,488,49.28,44.48,97.5,151749,55.79,9639.27
301817127,5600,49.013356,19.124241,37486,721.792262,7,454,0.80,486,49.78,42.89,97.6,151693,55.77,9695.04
301817127,5614,49.008962,19.173743,37486,723.759502,2,454,0.80,485,49.82,41.54,97.7,151670,22.62,9717.66
301817127,5650,49.000320,19.301927,36104,728.834772,42,475,0.83,508,50.02,40.78,95.8,151660,10.18,9727.84
301817127,5686,48.991193,19.435034,34737,734.106887,37,496,0.86,527,46.90,38.41,95.9,151650,10.30,9738.13
301817127,5722,48.981583,19.572774,33386,739.564540,32,518,0.89,546,40.57,34.32,96.0,151639,10.42,9748.55
301817127,5758,48.971454,19.715423,32051,745.218940,26,539,0.92,565,34.37,31.51,96.1,151629,10.54,9759.09
301817127,5794,48.960781,19.863067,31670,751.073805,21,560,0.96,585,28.10,29.16,96.2,151556,72.45,9831.54
301817127,5830,48.949540,20.015763,31670,757.131611,15,582,0.99,606,27.67,28.07,96.3,151443,113.24,9944.78
301817127,5866,48.937710,20.173503,31670,763.392456,9,603,1.03,626,27.30,27.01,96.5,151312,131.66,10076.44
301817127,5881,48.932629,20.240365,31670,766.047192,3,624,1.07,646,26.91,25.75,96.6,151248,63.66,10140.10
301817127,5917,48.923992,20.409244,30356,772.729047,42,646,1.10,668,26.98,25.24,94.4,151237,10.71,10150.81
301817127,5953,48.914839,20.583139,29058,779.611824,36,667,1.13,688,24.56,23.74,94.5,151226,10.85,10161.65
301817127,5989,48.905150,20.761947,27778,786.691774,29,688,1.16,708,22.85,21.97,94.6,151215,10.99,10172.64
301817127,6025,48.894903,20.945678,26515,793.969489,22,710,1.19,728,21.35,20.27,94.8,151204,11.14,10183.78
301817127,6061,48.884073,21.134327,25872,801.445195,14,731,1.22,748,19.47,18.56,94.9,150934,270.33,10454.11
301817127,6094,48.873697,21.310183,25872,808.416896,7,752,1.25,768,18.10,17.36,95.1,150273,661.04,11115.14
301817127,6130,48.865117,21.509726,24635,816.314328,42,774,1.28,790,18.72,17.52,93.7,150261,11.38,11126.52
301817127,6166,48.855955,21.714414,23416,824.418263,34,795,1.31,810,17.61,16.78,93.8,150250,11.55,11138.07
301817127,6202,48.846180,21.924322,22216,832.731975,26,816,1.34,831,17.18,16.44,94.0,150238,11.72,11149.79
301817127,6238,48.835774,22.139196,21035,841.245808,18,838,1.37,851,15.19,14.98,94.1,150226,11.91,11161.70
301817127,6274,48.824723,22.358788,20000,849.950326,9,859,1.40,870,12.40,12.49,94.3,149733,493.17,11654.87
>>>>>>> 4e125ca9e75da880cc1bbf21c84d74b94b0fccc8
